{"success":true,"data":[{"id":14902278,"vehicle_id":"GR86-051-71","lap":1,"timestamp":"2025-04-24T21:44:10.825Z","telemetry_name":"accx_can","telemetry_value":-0.116},{"id":14902279,"vehicle_id":"GR86-051-71","lap":1,"timestamp":"2025-04-24T21:44:10.825Z","telemetry_name":"accy_can","telemetry_value":0.031},{"id":14902280,"vehicle_id":"GR86-051-71","lap":1,"timestamp":"2025-04-24T21:44:10.825Z","telemetry_name":"ath","telemetry_value":5.11},{"id":14902281,"vehicle_id":"GR86-051-71","lap":1,"timestamp":"2025-04-24T21:44:10.825Z","telemetry_name":"pbrake_r","telemetry_value":0},{"id":14902282,"vehicle_id":"GR86-051-71","lap":1,"timestamp":"2025-04-24T21:44:10.825Z","telemetry_name":"pbrake_f","telemetry_value":0},{"id":14902283,"vehicle_id":"GR86-051-71","lap":1,"timestamp":"2025-04-24T21:44:10.825Z","telemetry_name":"gear","telemetry_value":1},{"id":14902284,"vehicle_id":"GR86-051-71","lap":1,"timestamp":"2025-04-24T21:44:10.825Z","telemetry_name":"Steering_Angle","telemetry_value":4.4},{"id":14902271,"vehicle_id":"GR86-051-71","lap":1,"timestamp":"2025-04-24T21:44:10.870Z","telemetry_name":"accx_can","telemetry_value":-0.095},{"id":14902272,"vehicle_id":"GR86-051-71","lap":1,"timestamp":"2025-04-24T21:44:10.870Z","telemetry_name":"accy_can","telemetry_value":0.005},{"id":14902273,"vehicle_id":"GR86-051-71","lap":1,"timestamp":"2025-04-24T21:44:10.870Z","telemetry_name":"ath","telemetry_value":5.12},{"id":14902274,"vehicle_id":"GR86-051-71","lap":1,"timestamp":"2025-04-24T21:44:10.870Z","telemetry_name":"pbrake_r","telemetry_value":0},{"id":14902275,"vehicle_id":"GR86-051-71","lap":1,"timestamp":"2025-04-24T21:44:10.870Z","telemetry_name":"pbrake_f","telemetry_value":0},{"id":14902276,"vehicle_id":"GR86-051-71","lap":1,"timestamp":"2025-04-24T21:44:10.870Z","telemetry_name":"gear","telemetry_value":1},{"id":14902277,"vehicle_id":"GR86-051-71","lap":1,"timestamp":"2025-04-24T21:44:10.870Z","telemetry_name":"Steering_Angle","telemetry_value":4.4},{"id":14902264,"vehicle_id":"GR86-051-71","lap":1,"timestamp":"2025-04-24T21:44:10.914Z","telemetry_name":"accx_can","telemetry_value":-0.092},{"id":14902265,"vehicle_id":"GR86-051-71","lap":1,"timestamp":"2025-04-24T21:44:10.914Z","telemetry_name":"accy_can","telemetry_value":0.044},{"id":14902266,"vehicle_id":"GR86-051-71","lap":1,"timestamp":"2025-04-24T21:44:10.914Z","telemetry_name":"ath","telemetry_value":5.12},{"id":14902267,"vehicle_id":"GR86-051-71","lap":1,"timestamp":"2025-04-24T21:44:10.914Z","telemetry_name":"pbrake_r","telemetry_value":0},{"id":14902268,"vehicle_id":"GR86-051-71","lap":1,"timestamp":"2025-04-24T21:44:10.914Z","telemetry_name":"pbrake_f","telemetry_value":0},{"id":14902269,"vehicle_id":"GR86-051-71","lap":1,"timestamp":"2025-04-24T21:44:10.914Z","telemetry_name":"gear","telemetry_value":1},{"id":14902270,"vehicle_id":"GR86-051-71","lap":1,"timestamp":"2025-04-24T21:44:10.914Z","telemetry_name":"Steering_Angle","telemetry_value":4.4},{"id":14902255,"vehicle_id":"GR86-051-71","lap":1,"timestamp":"2025-04-24T21:44:10.959Z","telemetry_name":"accx_can","telemetry_value":-0.081},{"id":14902256,"vehicle_id":"GR86-051-71","lap":1,"timestamp":"2025-04-24T21:44:10.959Z","telemetry_name":"accy_can","telemetry_value":0.057},{"id":14902257,"vehicle_id":"GR86-051-71","lap":1,"timestamp":"2025-04-24T21:44:10.959Z","telemetry_name":"ath","telemetry_value":5.11},{"id":14902258,"vehicle_id":"GR86-051-71","lap":1,"timestamp":"2025-04-24T21:44:10.959Z","telemetry_name":"pbrake_r","telemetry_value":0},{"id":14902259,"vehicle_id":"GR86-051-71","lap":1,"timestamp":"2025-04-24T21:44:10.959Z","telemetry_name":"pbrake_f","telemetry_value":0},{"id":14902260,"vehicle_id":"GR86-051-71","lap":1,"timestamp":"2025-04-24T21:44:10.959Z","telemetry_name":"gear","telemetry_value":1},{"id":14902261,"vehicle_id":"GR86-051-71","lap":1,"timestamp":"2025-04-24T21:44:10.959Z","telemetry_name":"Steering_Angle","telemetry_value":4.4},{"id":14902262,"vehicle_id":"GR86-051-71","lap":1,"timestamp":"2025-04-24T21:44:10.959Z","telemetry_name":"nmot","telemetry_value":1893},{"id":14902263,"vehicle_id":"GR86-051-71","lap":1,"timestamp":"2025-04-24T21:44:10.959Z","telemetry_name":"speed","telemetry_value":26.22},{"id":14902248,"vehicle_id":"GR86-051-71","lap":1,"timestamp":"2025-04-24T21:44:11.002Z","telemetry_name":"accx_can","telemetry_value":-0.089},{"id":14902249,"vehicle_id":"GR86-051-71","lap":1,"timestamp":"2025-04-24T21:44:11.002Z","telemetry_name":"accy_can","telemetry_value":0.005},{"id":14902250,"vehicle_id":"GR86-051-71","lap":1,"timestamp":"2025-04-24T21:44:11.002Z","telemetry_name":"ath","telemetry_value":5.12},{"id":14902251,"vehicle_id":"GR86-051-71","lap":1,"timestamp":"2025-04-24T21:44:11.002Z","telemetry_name":"pbrake_r","telemetry_value":0},{"id":14902252,"vehicle_id":"GR86-051-71","lap":1,"timestamp":"2025-04-24T21:44:11.002Z","telemetry_name":"pbrake_f","telemetry_value":0},{"id":14902253,"vehicle_id":"GR86-051-71","lap":1,"timestamp":"2025-04-24T21:44:11.002Z","telemetry_name":"gear","telemetry_value":1},{"id":14902254,"vehicle_id":"GR86-051-71","lap":1,"timestamp":"2025-04-24T21:44:11.002Z","telemetry_name":"Steering_Angle","telemetry_value":4.4},{"id":14902241,"vehicle_id":"GR86-051-71","lap":1,"timestamp":"2025-04-24T21:44:11.048Z","telemetry_name":"accx_can","telemetry_value":-0.10300000000000001},{"id":14902242,"vehicle_id":"GR86-051-71","lap":1,"timestamp":"2025-04-24T21:44:11.048Z","telemetry_name":"accy_can","telemetry_value":0.032},{"id":14902243,"vehicle_id":"GR86-051-71","lap":1,"timestamp":"2025-04-24T21:44:11.048Z","telemetry_name":"ath","telemetry_value":5.12},{"id":14902244,"vehicle_id":"GR86-051-71","lap":1,"timestamp":"2025-04-24T21:44:11.048Z","telemetry_name":"pbrake_r","telemetry_value":0},{"id":14902245,"vehicle_id":"GR86-051-71","lap":1,"timestamp":"2025-04-24T21:44:11.048Z","telemetry_name":"pbrake_f","telemetry_value":0},{"id":14902246,"vehicle_id":"GR86-051-71","lap":1,"timestamp":"2025-04-24T21:44:11.048Z","telemetry_name":"gear","telemetry_value":1},{"id":14902247,"vehicle_id":"GR86-051-71","lap":1,"timestamp":"2025-04-24T21:44:11.048Z","telemetry_name":"Steering_Angle","telemetry_value":4.4},{"id":14902234,"vehicle_id":"GR86-051-71","lap":1,"timestamp":"2025-04-24T21:44:11.092Z","telemetry_name":"accx_can","telemetry_value":-0.114},{"id":14902235,"vehicle_id":"GR86-051-71","lap":1,"timestamp":"2025-04-24T21:44:11.092Z","telemetry_name":"accy_can","telemetry_value":0.04},{"id":14902236,"vehicle_id":"GR86-051-71","lap":1,"timestamp":"2025-04-24T21:44:11.092Z","telemetry_name":"ath","telemetry_value":5.12},{"id":14902237,"vehicle_id":"GR86-051-71","lap":1,"timestamp":"2025-04-24T21:44:11.092Z","telemetry_name":"pbrake_r","telemetry_value":0},{"id":14902238,"vehicle_id":"GR86-051-71","lap":1,"timestamp":"2025-04-24T21:44:11.092Z","telemetry_name":"pbrake_f","telemetry_value":0},{"id":14902239,"vehicle_id":"GR86-051-71","lap":1,"timestamp":"2025-04-24T21:44:11.092Z","telemetry_name":"gear","telemetry_value":1},{"id":14902240,"vehicle_id":"GR86-051-71","lap":1,"timestamp":"2025-04-24T21:44:11.092Z","telemetry_name":"Steering_Angle","telemetry_value":4.4},{"id":14902227,"vehicle_id":"GR86-051-71","lap":1,"timestamp":"2025-04-24T21:44:11.135Z","telemetry_name":"accx_can","telemetry_value":-0.10300000000000001},{"id":14902228,"vehicle_id":"GR86-051-71","lap":1,"timestamp":"2025-04-24T21:44:11.135Z","telemetry_name":"accy_can","telemetry_value":0.001},{"id":14902229,"vehicle_id":"GR86-051-71","lap":1,"timestamp":"2025-04-24T21:44:11.135Z","telemetry_name":"ath","telemetry_value":5.12},{"id":14902230,"vehicle_id":"GR86-051-71","lap":1,"timestamp":"2025-04-24T21:44:11.135Z","telemetry_name":"pbrake_r","telemetry_value":0},{"id":14902231,"vehicle_id":"GR86-051-71","lap":1,"timestamp":"2025-04-24T21:44:11.135Z","telemetry_name":"pbrake_f","telemetry_value":0},{"id":14902232,"vehicle_id":"GR86-051-71","lap":1,"timestamp":"2025-04-24T21:44:11.135Z","telemetry_name":"gear","telemetry_value":1},{"id":14902233,"vehicle_id":"GR86-051-71","lap":1,"timestamp":"2025-04-24T21:44:11.135Z","telemetry_name":"Steering_Angle","telemetry_value":4.4},{"id":14902211,"vehicle_id":"GR86-051-71","lap":1,"timestamp":"2025-04-24T21:44:11.182Z","telemetry_name":"accx_can","telemetry_value":-0.08600000000000001},{"id":14902212,"vehicle_id":"GR86-051-71","lap":1,"timestamp":"2025-04-24T21:44:11.182Z","telemetry_name":"accy_can","telemetry_value":0.024},{"id":14902213,"vehicle_id":"GR86-051-71","lap":1,"timestamp":"2025-04-24T21:44:11.182Z","telemetry_name":"ath","telemetry_value":5.12},{"id":14902214,"vehicle_id":"GR86-051-71","lap":1,"timestamp":"2025-04-24T21:44:11.182Z","telemetry_name":"pbrake_r","telemetry_value":0},{"id":14902215,"vehicle_id":"GR86-051-71","lap":1,"timestamp":"2025-04-24T21:44:11.182Z","telemetry_name":"pbrake_f","telemetry_value":0},{"id":14902216,"vehicle_id":"GR86-051-71","lap":1,"timestamp":"2025-04-24T21:44:11.182Z","telemetry_name":"gear","telemetry_value":1},{"id":14902217,"vehicle_id":"GR86-051-71","lap":1,"timestamp":"2025-04-24T21:44:11.182Z","telemetry_name":"Steering_Angle","telemetry_value":4.4},{"id":14902225,"vehicle_id":"GR86-051-71","lap":1,"timestamp":"2025-04-24T21:44:11.182Z","telemetry_name":"nmot","telemetry_value":1848},{"id":14902226,"vehicle_id":"GR86-051-71","lap":1,"timestamp":"2025-04-24T21:44:11.182Z","telemetry_name":"speed","telemetry_value":25.55},{"id":14902218,"vehicle_id":"GR86-051-71","lap":1,"timestamp":"2025-04-24T21:44:11.225Z","telemetry_name":"accx_can","telemetry_value":-0.07200000000000001},{"id":14902219,"vehicle_id":"GR86-051-71","lap":1,"timestamp":"2025-04-24T21:44:11.225Z","telemetry_name":"accy_can","telemetry_value":0.059000000000000004},{"id":14902220,"vehicle_id":"GR86-051-71","lap":1,"timestamp":"2025-04-24T21:44:11.225Z","telemetry_name":"ath","telemetry_value":5.12},{"id":14902221,"vehicle_id":"GR86-051-71","lap":1,"timestamp":"2025-04-24T21:44:11.225Z","telemetry_name":"pbrake_r","telemetry_value":0},{"id":14902222,"vehicle_id":"GR86-051-71","lap":1,"timestamp":"2025-04-24T21:44:11.225Z","telemetry_name":"pbrake_f","telemetry_value":0},{"id":14902223,"vehicle_id":"GR86-051-71","lap":1,"timestamp":"2025-04-24T21:44:11.225Z","telemetry_name":"gear","telemetry_value":1},{"id":14902224,"vehicle_id":"GR86-051-71","lap":1,"timestamp":"2025-04-24T21:44:11.225Z","telemetry_name":"Steering_Angle","telemetry_value":4.4},{"id":14902204,"vehicle_id":"GR86-051-71","lap":1,"timestamp":"2025-04-24T21:44:11.270Z","telemetry_name":"accx_can","telemetry_value":-0.078},{"id":14902205,"vehicle_id":"GR86-051-71","lap":1,"timestamp":"2025-04-24T21:44:11.270Z","telemetry_name":"accy_can","telemetry_value":0.01},{"id":14902206,"vehicle_id":"GR86-051-71","lap":1,"timestamp":"2025-04-24T21:44:11.270Z","telemetry_name":"ath","telemetry_value":5.12},{"id":14902207,"vehicle_id":"GR86-051-71","lap":1,"timestamp":"2025-04-24T21:44:11.270Z","telemetry_name":"pbrake_r","telemetry_value":0},{"id":14902208,"vehicle_id":"GR86-051-71","lap":1,"timestamp":"2025-04-24T21:44:11.270Z","telemetry_name":"pbrake_f","telemetry_value":0},{"id":14902209,"vehicle_id":"GR86-051-71","lap":1,"timestamp":"2025-04-24T21:44:11.270Z","telemetry_name":"gear","telemetry_value":1},{"id":14902210,"vehicle_id":"GR86-051-71","lap":1,"timestamp":"2025-04-24T21:44:11.270Z","telemetry_name":"Steering_Angle","telemetry_value":4.4},{"id":14902197,"vehicle_id":"GR86-051-71","lap":1,"timestamp":"2025-04-24T21:44:11.314Z","telemetry_name":"accx_can","telemetry_value":-0.076},{"id":14902198,"vehicle_id":"GR86-051-71","lap":1,"timestamp":"2025-04-24T21:44:11.314Z","telemetry_name":"accy_can","telemetry_value":-0.005},{"id":14902199,"vehicle_id":"GR86-051-71","lap":1,"timestamp":"2025-04-24T21:44:11.314Z","telemetry_name":"ath","telemetry_value":5.12},{"id":14902200,"vehicle_id":"GR86-051-71","lap":1,"timestamp":"2025-04-24T21:44:11.314Z","telemetry_name":"pbrake_r","telemetry_value":0},{"id":14902201,"vehicle_id":"GR86-051-71","lap":1,"timestamp":"2025-04-24T21:44:11.314Z","telemetry_name":"pbrake_f","telemetry_value":0},{"id":14902202,"vehicle_id":"GR86-051-71","lap":1,"timestamp":"2025-04-24T21:44:11.314Z","telemetry_name":"gear","telemetry_value":1},{"id":14902203,"vehicle_id":"GR86-051-71","lap":1,"timestamp":"2025-04-24T21:44:11.314Z","telemetry_name":"Steering_Angle","telemetry_value":4.4},{"id":14902190,"vehicle_id":"GR86-051-71","lap":1,"timestamp":"2025-04-24T21:44:11.359Z","telemetry_name":"accx_can","telemetry_value":-0.09},{"id":14902191,"vehicle_id":"GR86-051-71","lap":1,"timestamp":"2025-04-24T21:44:11.359Z","telemetry_name":"accy_can","telemetry_value":0.017},{"id":14902192,"vehicle_id":"GR86-051-71","lap":1,"timestamp":"2025-04-24T21:44:11.359Z","telemetry_name":"ath","telemetry_value":5.12},{"id":14902193,"vehicle_id":"GR86-051-71","lap":1,"timestamp":"2025-04-24T21:44:11.359Z","telemetry_name":"pbrake_r","telemetry_value":0},{"id":14902194,"vehicle_id":"GR86-051-71","lap":1,"timestamp":"2025-04-24T21:44:11.359Z","telemetry_name":"pbrake_f","telemetry_value":0},{"id":14902195,"vehicle_id":"GR86-051-71","lap":1,"timestamp":"2025-04-24T21:44:11.359Z","telemetry_name":"gear","telemetry_value":1},{"id":14902196,"vehicle_id":"GR86-051-71","lap":1,"timestamp":"2025-04-24T21:44:11.359Z","telemetry_name":"Steering_Angle","telemetry_value":4.4},{"id":14902174,"vehicle_id":"GR86-051-71","lap":1,"timestamp":"2025-04-24T21:44:11.402Z","telemetry_name":"nmot","telemetry_value":1817},{"id":14902175,"vehicle_id":"GR86-051-71","lap":1,"timestamp":"2025-04-24T21:44:11.402Z","telemetry_name":"speed","telemetry_value":24.96},{"id":14902176,"vehicle_id":"GR86-051-71","lap":1,"timestamp":"2025-04-24T21:44:11.402Z","telemetry_name":"accx_can","telemetry_value":-0.113},{"id":14902177,"vehicle_id":"GR86-051-71","lap":1,"timestamp":"2025-04-24T21:44:11.402Z","telemetry_name":"accy_can","telemetry_value":0.016},{"id":14902178,"vehicle_id":"GR86-051-71","lap":1,"timestamp":"2025-04-24T21:44:11.402Z","telemetry_name":"ath","telemetry_value":5.18}],"meta":{"page":1,"limit":100,"total":630054,"totalPages":6301,"hasNext":true,"hasPrev":false,"responseTime":390}}
