{"success":true,"data":[{"id":14902278,"vehicle_id":"GR86-051-71","lap":1,"timestamp":"2025-04-24T21:44:10.825Z","telemetry_name":"accx_can","telemetry_value":-0.116},{"id":14902279,"vehicle_id":"GR86-051-71","lap":1,"timestamp":"2025-04-24T21:44:10.825Z","telemetry_name":"accy_can","telemetry_value":0.031},{"id":14902280,"vehicle_id":"GR86-051-71","lap":1,"timestamp":"2025-04-24T21:44:10.825Z","telemetry_name":"ath","telemetry_value":5.11},{"id":14902281,"vehicle_id":"GR86-051-71","lap":1,"timestamp":"2025-04-24T21:44:10.825Z","telemetry_name":"pbrake_r","telemetry_value":0},{"id":14902282,"vehicle_id":"GR86-051-71","lap":1,"timestamp":"2025-04-24T21:44:10.825Z","telemetry_name":"pbrake_f","telemetry_value":0},{"id":14902283,"vehicle_id":"GR86-051-71","lap":1,"timestamp":"2025-04-24T21:44:10.825Z","telemetry_name":"gear","telemetry_value":1},{"id":14902284,"vehicle_id":"GR86-051-71","lap":1,"timestamp":"2025-04-24T21:44:10.825Z","telemetry_name":"Steering_Angle","telemetry_value":4.4},{"id":14902271,"vehicle_id":"GR86-051-71","lap":1,"timestamp":"2025-04-24T21:44:10.870Z","telemetry_name":"accx_can","telemetry_value":-0.095},{"id":14902272,"vehicle_id":"GR86-051-71","lap":1,"timestamp":"2025-04-24T21:44:10.870Z","telemetry_name":"accy_can","telemetry_value":0.005},{"id":14902273,"vehicle_id":"GR86-051-71","lap":1,"timestamp":"2025-04-24T21:44:10.870Z","telemetry_name":"ath","telemetry_value":5.12},{"id":14902274,"vehicle_id":"GR86-051-71","lap":1,"timestamp":"2025-04-24T21:44:10.870Z","telemetry_name":"pbrake_r","telemetry_value":0},{"id":14902275,"vehicle_id":"GR86-051-71","lap":1,"timestamp":"2025-04-24T21:44:10.870Z","telemetry_name":"pbrake_f","telemetry_value":0},{"id":14902276,"vehicle_id":"GR86-051-71","lap":1,"timestamp":"2025-04-24T21:44:10.870Z","telemetry_name":"gear","telemetry_value":1},{"id":14902277,"vehicle_id":"GR86-051-71","lap":1,"timestamp":"2025-04-24T21:44:10.870Z","telemetry_name":"Steering_Angle","telemetry_value":4.4},{"id":14902264,"vehicle_id":"GR86-051-71","lap":1,"timestamp":"2025-04-24T21:44:10.914Z","telemetry_name":"accx_can","telemetry_value":-0.092},{"id":14902265,"vehicle_id":"GR86-051-71","lap":1,"timestamp":"2025-04-24T21:44:10.914Z","telemetry_name":"accy_can","telemetry_value":0.044},{"id":14902266,"vehicle_id":"GR86-051-71","lap":1,"timestamp":"2025-04-24T21:44:10.914Z","telemetry_name":"ath","telemetry_value":5.12},{"id":14902267,"vehicle_id":"GR86-051-71","lap":1,"timestamp":"2025-04-24T21:44:10.914Z","telemetry_name":"pbrake_r","telemetry_value":0},{"id":14902268,"vehicle_id":"GR86-051-71","lap":1,"timestamp":"2025-04-24T21:44:10.914Z","telemetry_name":"pbrake_f","telemetry_value":0},{"id":14902269,"vehicle_id":"GR86-051-71","lap":1,"timestamp":"2025-04-24T21:44:10.914Z","telemetry_name":"gear","telemetry_value":1}],"meta":{"page":1,"limit":20,"total":630054,"totalPages":31503,"hasNext":true,"hasPrev":false,"responseTime":352}}
